{
  "openapi": "3.0.3",
  "info": {
    "title": "Prison aplication",
    "version": "0.0.1"
  },
  "servers": [
    {
      "url": "http://localhost:8080/"
    }
  ],
  "tags": [
    {
      "name": "Prisoner",
      "description": "Everything about Prisoners"
    },
    {
      "name": "Cell",
      "description": "Everything about cells"
    },
    {
      "name": "WorkingPosition",
      "description": "Everything about working positions"
    },
    {
      "name": "SecurityGuard",
      "description": "Everything about guards"
    }
  ],
  "paths": {
    "/guards": {
      "post": {
        "tags": [
          "SecurityGuard"
        ],
        "summary": "Add a new SecurityGuard to the prison",
        "operationId": "createSecurityGuard",
        "requestBody": {
          "description": "Create a new SecurityGuard",
          "content": {
            "application/json": {
              "schema": {
                "$ref": "#/components/schemas/Guard"
              }
            }
          },
          "required": true
        },
        "responses": {
          "200": {
            "description": "Successful operation",
            "content": {
              "application/json": {
                "schema": {
                  "$ref": "#/components/schemas/Guard"
                }
              }
            }
          },
          "409": {
            "description": "Conflict"
          }
        }
      }
    },
    "/guards/{idGuard}": {
      "get": {
        "summary": "Return SecurityGuard by ID",
        "tags": [
          "SecurityGuard"
        ],
        "operationId": "getByIdSecurityGuard",
        "parameters": [
          {
            "name": "idGuard",
            "in": "path",
            "description": "ID of SecurityGuard to return",
            "required": true,
            "schema": {
              "type": "integer",
              "format": "int64"
            }
          }
        ],
        "responses": {
          "200": {
            "description": "SecurityGuard was find",
            "content": {
              "application/json": {
                "schema": {
                  "$ref": "#/components/schemas/Guard"
                }
              }
            }
          },
          "404": {
            "description": "SecurityGuard not found"
          }
        }
      },
      "delete": {
        "tags": [
          "SecurityGuard"
        ],
        "summary": "Deletes a SecurityGuard",
        "operationId": "deleteSecurityGuard",
        "parameters": [
          {
            "name": "idGuard",
            "in": "path",
            "required": true,
            "schema": {
              "type": "integer",
              "format": "int64"
            }
          }
        ],
        "responses": {
          "200": {
            "description": "SecurityGuard was deleted"
          },
          "404": {
            "description": "SecurityGuard not found"
          },
          "409": {
            "description": "Conflict, SecurityGuard was not deleted"
          }
        }
      },
      "put": {
        "tags": [
          "SecurityGuard"
        ],
        "summary": "SecurityGuard an existing Prisoner",
        "operationId": "updateSecurityGuard",
        "parameters": [
          {
            "name": "idGuard",
            "in": "path",
            "required": true,
            "schema": {
              "type": "integer",
              "format": "int64"
            }
          }
        ],
        "requestBody": {
          "description": "SecurityGuard an existents Working Position",
          "content": {
            "application/json": {
              "schema": {
                "$ref": "#/components/schemas/Guard"
              }
            }
          },
          "required": true
        },
        "responses": {
          "200": {
            "description": "Successful operation",
            "content": {
              "application/json": {
                "schema": {
                  "$ref": "#/components/schemas/Guard"
                }
              }
            }
          },
          "404": {
            "description": "SecurityGuard not found"
          },
          "409": {
            "description": "Conflict, salary is too low"
          }
        }
      }
    },
    "/guards/{idGuard}/prisoners": {
      "get": {
        "summary": "Return all prisoners observed by guard",
        "tags": [
          "SecurityGuard"
        ],
        "operationId": "readAllObserved",
        "parameters": [
          {
            "name": "idGuard",
            "in": "path",
            "description": "ID of SecurityGuard to return prisoners",
            "required": true,
            "schema": {
              "type": "integer",
              "format": "int64"
            }
          }
        ],
        "responses": {
          "200": {
            "description": "find",
            "content": {
              "application/json": {
                "schema": {
                  "$ref": "#/components/schemas/Prisoners"
                }
              }
            }
          },
          "404": {
            "description": "SecurityGuard not found"
          }
        }
      }
    },
    "/guards/{idGuard}/prisoners/{idPrisoner}": {
      "post": {
        "tags": [
          "SecurityGuard"
        ],
        "summary": "Mark the Prisoner as observed by guard",
        "operationId": "addObserved",
        "parameters": [
          {
            "name": "idGuard",
            "in": "path",
            "required": true,
            "schema": {
              "type": "integer",
              "format": "int64"
            }
          },
          {
            "name": "idPrisoner",
            "in": "path",
            "required": true,
            "schema": {
              "type": "integer",
              "format": "int64"
            }
          }
        ],
        "responses": {
          "200": {
            "description": "Successful operation",
            "content": {
              "application/json": {
                "schema": {
                  "$ref": "#/components/schemas/Guard"
                }
              }
            }
          },
          "404": {
            "description": "Prisoner or guard not found"
          }
        }
      },
      "delete": {
        "tags": [
          "SecurityGuard"
        ],
        "summary": "Deletes a observed",
        "operationId": "deleteObserved",
        "parameters": [
          {
            "name": "idGuard",
            "in": "path",
            "required": true,
            "schema": {
              "type": "integer",
              "format": "int64"
            }
          },
          {
            "name": "idPrisoner",
            "in": "path",
            "required": true,
            "schema": {
              "type": "integer",
              "format": "int64"
            }
          }
        ],
        "responses": {
          "200": {
            "description": "SecurityGuard was deleted"
          },
          "404": {
            "description": "SecurityGuard or prisoner not found"
          }
        }
      }
    },
    "/guards/{idGuard}/prisoners/{idWorkingPosition}": {
      "post": {
        "tags": [
          "SecurityGuard"
        ],
        "summary": "Add new position to guard",
        "operationId": "addPositionToGuard",
        "parameters": [
          {
            "name": "idGuard",
            "in": "path",
            "required": true,
            "schema": {
              "type": "integer",
              "format": "int64"
            }
          },
          {
            "name": "idWorkingPosition",
            "in": "path",
            "required": true,
            "schema": {
              "type": "string"
            }
          }
        ],
        "responses": {
          "200": {
            "description": "Successful operation",
            "content": {
              "application/json": {
                "schema": {
                  "$ref": "#/components/schemas/Guard"
                }
              }
            }
          },
          "404": {
            "description": "WorkingPosition or guard not found"
          }
        }
      }
    },
    "/cells": {
      "post": {
        "tags": [
          "Cell"
        ],
        "summary": "Add a new Cell to the prison",
        "operationId": "createCell",
        "requestBody": {
          "description": "Create a new Cell",
          "content": {
            "application/json": {
              "schema": {
                "$ref": "#/components/schemas/Cell"
              }
            }
          },
          "required": true
        },
        "responses": {
          "200": {
            "description": "Successful operation",
            "content": {
              "application/json": {
                "schema": {
                  "$ref": "#/components/schemas/Cell"
                }
              }
            }
          },
          "409": {
            "description": "Conflict"
          }
        }
      }
    },
    "/cells/{idCell}": {
      "get": {
        "summary": "Return Cell by ID",
        "tags": [
          "Cell"
        ],
        "operationId": "getByIdCell",
        "parameters": [
          {
            "name": "idCell",
            "in": "path",
            "description": "ID of Cellto return",
            "required": true,
            "schema": {
              "type": "integer",
              "format": "int64"
            }
          }
        ],
        "responses": {
          "200": {
            "description": "Cell was find",
            "content": {
              "application/json": {
                "schema": {
                  "$ref": "#/components/schemas/Cell"
                }
              }
            }
          },
          "404": {
            "description": "Cell not found"
          }
        }
      },
      "delete": {
        "tags": [
          "Cell"
        ],
        "summary": "Deletes a Cell",
        "operationId": "deleteCell",
        "parameters": [
          {
            "name": "idCell",
            "in": "path",
            "required": true,
            "schema": {
              "type": "integer",
              "format": "int64"
            }
          }
        ],
        "responses": {
          "200": {
            "description": "Cell was deleted"
          },
          "404": {
            "description": "Cell not found"
          },
          "409": {
            "description": "Conflict, Cell was not deleted"
          }
        }
      },
      "put": {
        "tags": [
          "Cell"
        ],
        "summary": "Cell an existing Prisoner",
        "operationId": "updateCell",
        "parameters": [
          {
            "name": "idCell",
            "in": "path",
            "required": true,
            "schema": {
              "type": "integer",
              "format": "int64"
            }
          }
        ],
        "requestBody": {
          "description": "Cell an existents Working Position",
          "content": {
            "application/json": {
              "schema": {
                "$ref": "#/components/schemas/Cell"
              }
            }
          },
          "required": true
        },
        "responses": {
          "200": {
            "description": "Successful operation",
            "content": {
              "application/json": {
                "schema": {
                  "$ref": "#/components/schemas/Cell"
                }
              }
            }
          },
          "404": {
            "description": "Cell not found"
          },
          "409": {
            "description": "Conflict, cell is too small"
          }
        }
      }
    },
    "/cells/{idCell}/prisoners": {
      "get": {
        "summary": "Return all prisoners in the cell",
        "tags": [
          "Cell"
        ],
        "operationId": "readAllPrisoners",
        "parameters": [
          {
            "name": "idCell",
            "in": "path",
            "description": "ID of Cell to return prisoners",
            "required": true,
            "schema": {
              "type": "integer",
              "format": "int64"
            }
          }
        ],
        "responses": {
          "200": {
            "description": "find",
            "content": {
              "application/json": {
                "schema": {
                  "$ref": "#/components/schemas/Prisoners"
                }
              }
            }
          },
          "404": {
            "description": "Cell not found"
          }
        }
      }
    },
    "/cells/find/{salary}": {
      "get": {
        "summary": "Return all cells with salary of guards watched on prisoners in cell",
        "tags": [
          "Cell"
        ],
        "operationId": "findCellsBySalary",
        "parameters": [
          {
            "name": "salary",
            "in": "path",
            "description": "salary of guards watched on prisoners in cells",
            "required": true,
            "schema": {
              "type": "integer",
              "format": "int64"
            }
          }
        ],
        "responses": {
          "200": {
            "description": "find",
            "content": {
              "application/json": {
                "schema": {
                  "$ref": "#/components/schemas/Cells"
                }
              }
            }
          },
          "404": {
            "description": "Cell not found"
          }
        }
      }
    },
    "/positions": {
      "post": {
        "tags": [
          "WorkingPosition"
        ],
        "summary": "Add a new Working Position to the prison",
        "operationId": "createWp",
        "requestBody": {
          "description": "Create a new Working Position",
          "content": {
            "application/json": {
              "schema": {
                "$ref": "#/components/schemas/WorkingPosition"
              }
            }
          },
          "required": true
        },
        "responses": {
          "200": {
            "description": "Successful operation",
            "content": {
              "application/json": {
                "schema": {
                  "$ref": "#/components/schemas/WorkingPosition"
                }
              }
            }
          },
          "409": {
            "description": "Invalid input"
          }
        }
      }
    },
    "/positions/{idWorkingPosition}": {
      "get": {
        "summary": "Return Working position by ID",
        "tags": [
          "WorkingPosition"
        ],
        "operationId": "getByIdWp",
        "parameters": [
          {
            "name": "idWorkingPosition",
            "in": "path",
            "description": "ID of Working Position to return",
            "required": true,
            "schema": {
              "type": "string"
            }
          }
        ],
        "responses": {
          "200": {
            "description": "Working Position was find",
            "content": {
              "application/json": {
                "schema": {
                  "$ref": "#/components/schemas/WorkingPosition"
                }
              }
            }
          },
          "404": {
            "description": "Working Position not found"
          }
        }
      },
      "delete": {
        "tags": [
          "WorkingPosition"
        ],
        "summary": "Deletes a Working Position",
        "operationId": "deleteWp",
        "parameters": [
          {
            "name": "idWorkingPosition",
            "in": "path",
            "required": true,
            "schema": {
              "type": "string"
            }
          }
        ],
        "responses": {
          "200": {
            "description": "Working Position was deleted"
          },
          "404": {
            "description": "Working Position not found"
          },
          "409": {
            "description": "Conflict, WorkingPosition was not deleted"
          }
        }
      },
      "put": {
        "tags": [
          "WorkingPosition"
        ],
        "summary": "Update an existing WorkingPosition",
        "operationId": "updateWp",
        "parameters": [
          {
            "name": "idWorkingPosition",
            "in": "path",
            "required": true,
            "schema": {
              "type": "string"
            }
          }
        ],
        "requestBody": {
          "description": "Update an existents Working Position",
          "content": {
            "application/json": {
              "schema": {
                "$ref": "#/components/schemas/WorkingPosition"
              }
            }
          },
          "required": true
        },
        "responses": {
          "200": {
            "description": "Successful operation",
            "content": {
              "application/json": {
                "schema": {
                  "$ref": "#/components/schemas/WorkingPosition"
                }
              }
            }
          },
          "404": {
            "description": "Working Position not found"
          }
        }
      }
    },
    "/positions/{idWorkingPosition}/guards": {
      "get": {
        "summary": "Return all guards on the position",
        "tags": [
          "WorkingPosition"
        ],
        "operationId": "readAllGuards",
        "parameters": [
          {
            "name": "idWorkingPosition",
            "in": "path",
            "description": "ID of Working Position to return guards",
            "required": true,
            "schema": {
              "type": "string"
            }
          }
        ],
        "responses": {
          "200": {
            "description": "find",
            "content": {
              "application/json": {
                "schema": {
                  "$ref": "#/components/schemas/Guards"
                }
              }
            }
          },
          "404": {
            "description": "Working Position not found"
          }
        }
      }
    },
    "/prisoners/{idPrisoner}": {
      "get": {
        "summary": "Return Prisoner by ID",
        "tags": [
          "Prisoner"
        ],
        "operationId": "getByIdPris",
        "parameters": [
          {
            "name": "idPrisoner",
            "in": "path",
            "description": "ID of Prisoner to return",
            "required": true,
            "schema": {
              "type": "integer",
              "format": "int64"
            }
          }
        ],
        "responses": {
          "200": {
            "description": "Prisoner was find",
            "content": {
              "application/json": {
                "schema": {
                  "$ref": "#/components/schemas/Prisoner"
                }
              }
            }
          },
          "404": {
            "description": "Prisoner not found"
          }
        }
      },
      "delete": {
        "tags": [
          "Prisoner"
        ],
        "summary": "Deletes a Prisoner",
        "operationId": "deletePris",
        "parameters": [
          {
            "name": "idPrisoner",
            "in": "path",
            "required": true,
            "schema": {
              "type": "integer",
              "format": "int64"
            }
          }
        ],
        "responses": {
          "200": {
            "description": "Prisoner was deleted"
          },
          "404": {
            "description": "Prisoner not found"
          }
        }
      },
      "put": {
        "tags": [
          "Prisoner"
        ],
        "summary": "Update an existing Prisoner",
        "operationId": "updatePris",
        "parameters": [
          {
            "name": "idPrisoner",
            "in": "path",
            "required": true,
            "schema": {
              "type": "integer",
              "format": "int64"
            }
          }
        ],
        "requestBody": {
          "description": "Update an existent Prisoner",
          "content": {
            "application/json": {
              "schema": {
                "$ref": "#/components/schemas/Prisoner"
              }
            }
          },
          "required": true
        },
        "responses": {
          "200": {
            "description": "Successful operation",
            "content": {
              "application/json": {
                "schema": {
                  "$ref": "#/components/schemas/Prisoner"
                }
              }
            }
          },
          "404": {
            "description": "Prisoner not found"
          }
        }
      }
    },
    "/prisoners/{idPrisoner}/guards": {
      "get": {
        "summary": "Return all guards watched on Prisoner",
        "tags": [
          "Prisoner"
        ],
        "operationId": "readAllWatched",
        "parameters": [
          {
            "name": "idPrisoner",
            "in": "path",
            "description": "ID of Prisoner to return guards",
            "required": true,
            "schema": {
              "type": "integer",
              "format": "int64"
            }
          }
        ],
        "responses": {
          "200": {
            "description": "find",
            "content": {
              "application/json": {
                "schema": {
                  "$ref": "#/components/schemas/Guards"
                }
              }
            }
          },
          "404": {
            "description": "Prisoner not found"
          }
        }
      }
    },
    "/prisoners": {
      "post": {
        "tags": [
          "Prisoner"
        ],
        "summary": "Add a new Prisoner to the prison",
        "operationId": "createPris",
        "requestBody": {
          "description": "Create a new Prisoner in the prison",
          "content": {
            "application/json": {
              "schema": {
                "$ref": "#/components/schemas/Prisoner"
              }
            }
          },
          "required": true
        },
        "responses": {
          "200": {
            "description": "Successful operation",
            "content": {
              "application/json": {
                "schema": {
                  "$ref": "#/components/schemas/Prisoner"
                }
              }
            }
          },
          "409": {
            "description": "Invalid input"
          }
        }
      }
    },
    "/prisoners/{idPrisoner}/cells/{idCell}": {
      "post": {
        "tags": [
          "Prisoner"
        ],
        "summary": "Add a Prisoner to the cell",
        "operationId": "addPrisonerToCell",
        "parameters": [
          {
            "name": "idPrisoner",
            "in": "path",
            "description": "ID of Prisoner",
            "required": true,
            "schema": {
              "type": "integer",
              "format": "int64"
            }
          },
          {
            "name": "idCell",
            "in": "path",
            "description": "ID of cell",
            "required": true,
            "schema": {
              "type": "integer",
              "format": "int64"
            }
          }
        ],
        "responses": {
          "200": {
            "description": "Successful operation",
            "content": {
              "application/json": {
                "schema": {
                  "$ref": "#/components/schemas/Prisoner"
                }
              }
            }
          },
          "404": {
            "description": "Prisoner or cell not found"
          },
          "409": {
            "description": "Do not added"
          }
        }
      }
    }
  },
  "components": {
    "schemas": {
      "Cell": {
        "type": "object",
        "properties": {
          "idCell": {
            "type": "integer",
            "format": "int64",
            "example": 10
          },
          "size": {
            "type": "number",
            "format": "double",
            "example": 10.1
          },
          "comfort": {
            "type": "number",
            "format": "double",
            "example": 10.1
          },
          "idPrisoners": {
            "type": "array",
            "items": {
              "format": "int64",
              "example": 142
            }
          }
        },
        "category": {
          "$ref": "#components/schemas/Cell"
        }
      },
      "Cells": {
        "type": "array",
        "items": {
          "$ref": "#/components/schemas/Cell"
        },
        "example": [
          {
            "idCell": 10,
            "size": "10d",
            "comfort": "12d",
            "idPrisoners": [
              10,
              14
            ]
          },
          {
            "idCell": 102,
            "size": 11.4,
            "comfort": "12d",
            "idPrisoners": [
              10,
              43
            ]
          }
        ]
      },
      "WorkingPosition": {
        "type": "object",
        "properties": {
          "positionName": {
            "type": "string",
            "example": "SuperGuard"
          },
          "minSalary": {
            "type": "integer",
            "format": "int64",
            "example": 19
          },
          "idSecurityGuards": {
            "type": "array",
            "items": {
              "type": "integer",
              "format": "int64",
              "example": 19
            }
          }
        },
        "category": "$ref:\"#components/schemas/WorkingPosition\""
      },
      "Prisoner": {
        "type": "object",
        "properties": {
          "idPrisoner": {
            "type": "integer",
            "format": "int64",
            "example": 10
          },
          "name": {
            "type": "string"
          },
          "regime": {
            "type": "string"
          },
          "idCell": {
            "type": "integer",
            "format": "int64",
            "example": 12
          },
          "idWatched": {
            "type": "array",
            "items": {
              "format": "int64",
              "example": 12
            }
          }
        },
        "category": {
          "$ref": "#components/schemas/Prisoner"
        }
      },
      "Prisoners": {
        "type": "array",
        "items": {
          "$ref": "#/components/schemas/Prisoner"
        },
        "example": [
          {
            "idPrisoner": 10,
            "name": "Anton",
            "regime": "Hard",
            "idCell": 1000,
            "idWatched": [
              10,
              14
            ]
          },
          {
            "idPrisoner": 32,
            "name": "Antonio",
            "regime": "Hard",
            "idCell": 1000,
            "idWatched": [
              10,
              14,
              92
            ]
          }
        ]
      },
      "Guard": {
        "type": "object",
        "properties": {
          "idGuard": {
            "type": "integer",
            "format": "int64",
            "example": 10
          },
          "name": {
            "type": "string"
          },
          "idWorkingPosition": {
            "type": "string"
          },
          "salary": {
            "type": "integer",
            "format": "int64",
            "example": 1000
          },
          "idObserved": {
            "type": "array",
            "items": {
              "format": "int64",
              "example": 12
            }
          }
        },
        "category": {
          "$ref": "#components/schemas/Guard"
        }
      },
      "Guards": {
        "type": "array",
        "items": {
          "$ref": "#/components/schemas/Guard"
        },
        "example": [
          {
            "idGuard": 10,
            "name": "Anton",
            "idWorkingPosition": "SuperGuard",
            "salary": 1000,
            "idObserved": [
              10,
              14
            ]
          },
          {
            "idGuard": 32,
            "name": "Antonio",
            "idWorkingPosition": "SuperGuard",
            "salary": 1000,
            "idObserved": [
              10,
              14,
              92
            ]
          }
        ]
      }
    }
  }
}